......
----------------------------------------------------------------------
Ran 6 tests in 0.015s

OK
Name             Stmts   Miss Branch BrPart  Cover   Missing
------------------------------------------------------------
Netflix.py          51      3     10      1    93%   26-29, 22->26
TestNetflix.py      40      0      0      0   100%
------------------------------------------------------------
TOTAL               91      3     10      1    96%
